111 7024 8879 475 9015 2821 426 1259 9947 3391 8539 1701 3727 9936 6569 8885 9009 9933 3702 4632 8168 9726 6401 9609 6335 1674 8535 4875 9136 3777 5267 7504 6266 2604 176 6973 2255 2988 8829 8381 8457 2297 631 8068 1801 5549 3548 5922 874 2251 6325 4636 7956 7443 8674 6858 7318 2696 4991 9937 3770 4608 1579 5096 3317 1926 3336 3085 1666 8676 8410 2639 4060 8654 2072 4712 175 6877 9353 6411 259 3155 2756 5362 472 1225 2877 8374 9890 8844 9605 2845 7342 6517 6935 2448 780 9900 5186 4118 2039 3907 6318 2091 2878 8699 7403 5946 3419 9186 7278 7821
121 699 2328 181 1822 851 5419 1335 1043 3959 9381 87 9076 2826 6271 5388 5438 940 6309 406 1947 9680 8611 9795 4575 403 8438 3865 6376 290 7349 6765 6253 5279 4865 1863 3780 2651 5471 798 1495 1599 4755 4328 9208 1597 3666 9010 5682 3156 4790 8855 1671 4519 3292 2770 7320 9261 413 9216 904 9250 5565 9027 8637 441 8038 8717 8733 2397 7712 7302 8663 6503 4408 5320 2205 174 8610 9180 4780 7625 1120 9831 6345 7187 4164 1179 8939 3328 5144 5583 3002 2161 1383 5278 8953 3879 9399 9524 4509 9227 6677 1083 1635 1062 9160 5120 3700 7805 7292 7561 4932 2231 2145 9495 7786 4624 3260 5372 2873 4044
115 574 1643 4746 5238 262 8218 338 6204 9351 4085 3062 2360 5395 2432 270 6952 4342 7598 2290 9207 6863 6591 9774 8072 85 2967 9631 5475 5159 2802 3942 2781 4497 1845 7490 9206 5627 9527 4268 6229 7876 3811 9501 7634 1895 1489 7017 5783 1416 6233 8635 657 6136 1832 6542 6196 3858 9620 4817 1435 6145 1654 7332 8158 641 4851 474 6487 2641 8301 3015 7947 710 1648 7542 1476 1796 438 8817 6657 8801 5223 2997 4374 385 7560 8584 8553 3036 79 8237 6027 5866 6285 2676 7636 1250 4221 2587 5165 6475 1434 1767 1279 1077 2655 1199 3040 4737 6254 8241 9020 9671 1349 3312
103 6373 3895 384 1299 209 5289 2714 1461 7715 3276 317 2955 194 2926 3584 7054 4987 1846 3572 9165 116 7093 1569 5470 261 1606 4202 7678 3714 4266 7661 9651 4330 2325 7039 1004 2247 3494 7794 8807 2951 4025 4394 7983 6240 7847 1975 2566 6227 961 8110 5747 752 8607 9392 96 3131 3134 3231 1409 6793 2537 339 2763 3208 7631 9986 2160 3850 8622 1609 5313 3288 9525 6457 5003 6394 714 250 1809 8541 2022 3422 1375 2733 1494 1499 790 9316 2336 1526 4767 2757 5073 5759 8602 8339 6782 9348 4652 6163 6963 3046
107 3545 7401 9559 1981 9754 7139 489 3826 8797 2050 3769 5916 9846 6181 9832 8292 3589 6167 8363 7294 5982 2663 7010 4307 8370 499 6350 1249 787 9018 9793 8651 1287 6001 354 9385 8604 9232 3515 4881 2737 8109 5097 1347 8338 5411 8595 2009 8401 9246 1954 4009 9931 8257 3058 8884 1390 6268 7137 3434 5502 9345 2776 6319 5905 4190 8930 8228 1590 1075 1273 1140 6263 9431 2972 5956 9493 9021 7519 988 4372 6561 5699 2426 8316 7960 2168 7168 2517 5926 415 1522 8575 352 2513 8065 2366 257 9663 9696 5312 5883 6519 9612 5683 5921 8150
121 5037 8687 2144 1394 4162 7842 2806 8633 5404 4554 3191 5819 3230 3228 5750 2384 5087 5867 5669 5364 7359 6085 451 4022 3658 8959 4966 5175 939 3885 6218 6370 9853 4121 1687 6113 4344 7564 3196 3081 4934 7434 8986 4915 9379 7076 9838 448 8082 3971 7058 4204 776 4367 5511 1529 1677 9554 1485 61 7257 1395 1236 6747 8473 707 1588 3668 4493 8130 9446 8928 6267 6967 912 3063 9972 5787 6692 9650 5815 4732 7788 1717 7149 9022 9034 2995 6055 5790 920 8977 985 1710 8288 4107 7127 3612 1686 3401 8393 9079 8094 6459 3797 9033 9343 9471 4748 2766 5371 4078 7101 4241 5290 4850 6323 8408 7117 122 7609
117 4131 6810 7547 2891 6981 6262 1882 4345 8517 5311 9453 5178 5552 1927 9897 2944 5377 5196 5679 3365 3327 6422 7303 9298 1213 3524 4974 225 7219 2814 1187 2786 5718 9567 8041 3187 658 3540 7999 4577 7667 1506 663 9700 628 8593 5924 6496 1502 7230 5417 4870 675 5055 5786 1746 127 6882 3177 9450 7087 4736 4797 7518 5336 1856 5330 8789 273 6958 6299 1267 4090 6618 8577 6566 1024 2402 7551 8032 3981 6859 2454 6186 137 3847 9189 5572 8650 5645 2579 7815 3278 3539 8311 6472 6602 9074 3017 9154 8862 4634 922 9570 1464 2880 9019 8730 7159 200 626 1679 2130 7704 3127 1412 6377
115 8727 814 2685 4722 5862 4203 3547 7167 7696 9522 6086 1680 244 9878 6977 3222 8089 2622 6435 9760 8276 6934 9142 2841 8527 9917 5038 4119 4251 8447 1965 496 9535 751 8262 8868 6360 9660 5048 9755 2078 9942 9684 7731 4114 5382 739 7925 4284 9043 8965 7474 6716 9679 8021 4664 524 9452 3346 3734 6332 782 908 6174 5859 509 3109 4629 1689 3956 210 1525 1688 5138 4007 2274 6585 6407 2721 5281 9408 224 3329 4020 2881 7688 4844 473 8686 9305 4602 1415 7110 7771 7946 1094 1320 4316 7726 4761 7779 960 4808 8948 2452 7885 3415 5033 9317 7834 1447 9004 2959 8614 735
120 2355 1755 1159 3821 204 3759 4861 4833 7722 8565 2727 5731 2093 5244 3428 9528 3635 6224 4096 4484 9539 3623 4486 5464 9182 7681 7293 6106 7736 7721 9118 5622 5603 3919 4874 7718 8816 1439 1144 5327 7744 4331 5115 1951 1342 6288 271 8812 6344 3814 2390 223 2824 9117 3864 2324 2377 263 4744 5524 9839 9702 7175 8298 4102 222 6994 5978 9188 7959 8881 3068 3197 4860 2051 180 4585 516 5185 8049 9100 2347 5323 8 8093 7436 3279 3370 8095 3595 4436 7456 1074 662 593 8388 8450 4401 5563 8490 6573 3829 8424 7515 9258 2680 6850 6063 8430 3992 7274 9912 3152 3931 3615 6046 926 8012 2122 9307
111 7787 1890 9116 9427 3859 1690 6570 6251 1936 6256 9069 4499 8341 5122 4529 9640 1318 8679 7421 2370 3030 8897 8823 9589 9212 2738 8725 2977 964 5025 255 4222 8744 27 9746 5975 6931 7569 2270 8667 7322 1307 6774 3882 5443 8145 4450 5458 7000 9820 6675 8483 5869 8540 6308 9869 2092 8179 6737 5547 2867 6093 4574 9586 1941 840 6455 7446 6222 9063 3744 2113 2843 5142 5660 1369 5670 7267 4048 5454 5119 3014 6825 6624 49 1665 2408 4017 2199 7379 7864 8394 2735 2605 2341 6199 2069 4429 7224 112 3270 420 4880 7870 5427 9211 6728 6885 6028 309 8501
123 9213 1221 2344 6102 3555 3016 9390 269 9248 7521 833 5146 4366 7172 9291 8790 9168 8496 8598 1868 1133 4338 7992 6481 2110 8688 6966 5689 5594 542 1336 1681 3928 5482 649 9552 4236 4638 3263 4439 9496 6824 4288 3110 967 7508 7979 221 7750 7640 7413 497 2111 5295 401 81 6571 7512 7601 9568 6979 3894 7191 8634 5304 9691 9430 4262 8697 1969 8131 1005 4695 237 4348 6707 7987 4303 2031 4485 8703 3570 6564 2633 1876 8819 1911 5216 9966 6611 1861 4953 2885 4918 1178 2597 6785 1938 3743 5915 2024 5103 3376 6915 3987 3561 6327 7952 7350 5461 6488 2082 5613 3534 2423 6493 5708 9816 1023 9284 8890 313 4944
104 7706 5738 4583 559 2892 7333 1784 3095 860 923 4610 6780 1789 6383 5256 8532 9777 4036 2396 8993 7251 376 232 5564 3542 6786 6453 1627 5724 1816 4774 2969 7325 5051 5870 1420 3042 6461 6775 91 8852 2976 4503 1541 353 7216 4188 3199 4043 847 9200 9642 7209 8869 9721 5329 6954 8802 5367 4476 1459 5898 8196 6548 6423 4674 8052 7622 3752 9094 5026 1198 377 9925 8437 4752 8444 5543 9483 7150 9025 5536 8850 3067 6169 2302 9940 4523 6623 1362 5453 3782 7716 8975 9409 2893 4640 3604 5991 1297 491 9192 5748 2629
111 5439 7472 971 9176 6662 9907 9877 9426 8001 9946 6881 9045 4614 8546 4847 8174 727 4627 4273 3869 1455 3038 1289 4286 7146 6608 4590 272 6462 6083 8208 9887 7215 9320 8547 3375 9932 1641 551 9807 1549 1317 2525 5825 8260 5108 8063 1103 5680 7741 5674 4647 8552 1537 3253 771 934 3168 2615 4570 1456 815 6443 1505 7647 3671 3061 2296 9460 8865 4769 1446 8769 4261 6290 4939 958 2923 2827 8186 1583 6815 7400 4470 575 206 5247 5029 592 2590 2854 8221 1598 2467 2872 6433 5988 2455 9573 5933 4396 2442 4152 8906 3301 3172 1392 3849 890 6342 4136
113 7329 4327 8083 7009 4223 892 7003 125 7497 5273 6990 20 9243 9849 1257 8154 9576 4480 1049 6899 8481 5791 8256 1245 910 5888 9938 6076 2642 8711 979 2864 7240 8563 4581 5319 3617 6354 7108 1566 8632 93 9225 6476 2077 2539 2584 7780 9673 6614 4039 7033 4311 1229 8132 9401 2588 2865 6092 2946 8076 2020 335 5166 2556 5850 731 279 1754 7491 6206 9794 3756 8000 635 5795 7934 2085 4112 4942 299 6800 8551 4272 3649 9283 6310 4845 278 302 9423 8054 2552 6172 1844 1291 6612 8259 7125 2790 2840 3403 7180 7943 476 1309 1736 2575 7838 7032 3123 7938 2363
117 9035 6996 3321 1716 1071 1492 764 418 9706 7321 9784 2947 3640 8107 1268 5596 2181 4728 3823 3514 4134 3938 6147 8631 6574 265 1466 439 3518 4882 3511 3426 7493 1206 365 7437 6634 4923 3483 9814 4083 8945 9480 6909 5606 4793 9289 9173 4245 3827 2307 4622 9819 6900 3374 973 3337 5128 5099 9870 5909 2852 4496 4461 6297 2011 1555 2739 3117 6834 3475 4745 9948 7811 5095 4320 3099 6337 5228 5711 7391 5955 554 4473 9341 498 2023 409 1831 4800 2764 7471 2456 6012 6252 8821 9767 623 1833 3670 7384 2 6801 5663 9050 7227 1998 4074 3265 2264 7809 766 366 7249 3695 4041 7951
116 1523 9775 8246 4566 103 1905 8508 4432 2793 3227 8502 9355 9811 4111 7646 2322 2678 214 8766 5897 4679 6827 6582 7859 5773 9237 8519 8746 5497 1515 894 2209 8405 9529 5435 8642 4388 8921 6118 358 5490 5262 8484 8289 871 6112 1592 1782 2657 2187 7119 9815 9745 7141 1163 977 3698 8359 5016 8493 5078 8399 5843 6317 486 3854 8919 1091 2734 6983 3898 8832 7543 7723 4072 3080 1475 7822 4045 7775 1001 5705 7052 2578 6010 829 6203 9974 8580 8845 490 4230 4354 1805 2498 4500 5202 8273 7031 4540 8513 1968 8831 995 5221 6405 1972 6339 3180 3135 504 9073 7061 3478 9532 9198
116 4217 357 3437 8417 264 6293 6671 5406 1152 8177 2529 8990 6795 5360 6508 6735 5089 4688 1058 6736 4697 2654 3911 5091 765 5079 72 1974 4084 4336 8290 4831 4673 1930 6154 2889 3096 5227 8308 6701 4212 3489 6777 2180 8870 1101 4431 2348 8972 9371 708 1314 9410 4757 1316 1587 9295 5696 2081 6396 4160 1422 3872 2358 6473 797 9861 138 2188 9701 2065 9930 111 8007 330 3627 7522 4970 161 3755 4982 2014 3624 6959 2075 282 6989 643 5179 3198 5180 1633 8538 3863 7878 8055 1970 1280 2154 6969 4666 256 2166 2788 9771 6592 1660 8880 8017 2586 740 6226 1366 5739 4550 7489
113 1546 6326 2173 2711 9954 2911 4786 4921 7189 2119 9150 2581 3638 5149 8724 7711 6008 5911 4723 4930 8518 8857 5432 7482 6629 4055 1220 5999 2185 1022 6067 600 238 3936 4659 2811 5515 7700 7295 8659 767 677 7727 8171 4089 6543 7385 2038 2475 1491 4916 503 3653 412 1443 5581 6494 7926 6870 4274 6202 8335 8964 9272 7570 427 8645 193 2927 9580 7591 7919 4156 9196 6982 1285 2571 6597 2227 4506 2281 3732 2415 5062 6532 9862 6415 3034 4665 9579 6667 9835 4495 9194 6921 2469 5150 4141 7857 5979 9159 9665 3266 2446 228 1328 4587 8839 1232 1493 6734 6048 6091
118 640 268 4951 7337 4300 8043 3652 7466 433 2582 5789 411 4536 9209 8211 4298 801 5844 326 1990 891 7583 9205 5523 1753 6207 83 7478 5638 3835 9253 9321 9859 9610 8446 4000 6640 5192 907 1089 5799 9429 1080 1184 129 3651 2583 4205 2215 3614 1009 67 3479 9070 1949 119 4474 6158 9428 5129 3381 9054 301 5272 1240 4140 36 4315 1154 4410 552 9977 2695 8324 806 7552 3807 5226 7918 8542 4955 8714 5566 9119 8776 3209 8927 7085 3004 2434 2476 5420 7814 2751 3634 3332 2775 5937 4884 4232 6628 8398 2266 4333 2118 9545 9763 5690 5695 1386 8406 7833 3531 9048 7143 4802 4708 4759
115 336 6615 2692 9744 5193 7340 3937 9803 7496 7510 3933 9790 4758 3289 8979 9888 3013 135 6510 3947 4416 5560 834 2349 1848 6855 2259 2609 2477 7205 6242 9481 7895 4735 1594 3214 6772 526 6704 8085 946 1026 4185 6078 5780 6917 9311 300 2211 9414 9817 9028 7021 3466 2288 6064 8042 5426 8299 6298 7763 3986 4863 7680 3413 3735 4414 6922 681 6817 2191 6404 6192 2132 745 1527 4658 7047 2717 1843 7691 2856 1971 8281 2925 3165 2103 3179 6208 5580 3213 6813 3654 7008 44 4259 1651 4740 3357 8165 1150 3481 1793 2882 5631 2965 918 9739 1168 445 1190 9356 1656 1086 8392
117 2036 6626 2101 8167 9388 9511 5601 6851 9479 1344 6878 216 6706 3223 5112 9960 1615 1761 6409 7204 5136 1440 4849 638 2178 6761 2896 3952 8209 9978 6239 9980 741 2359 8051 4254 2444 3726 9389 9403 608 1917 1330 1977 8516 8648 3620 4243 2596 9874 1218 1069 7073 110 3234 7077 5317 1127 3665 9602 9264 1292 25 3924 347 5350 8006 2909 8432 4457 9435 9637 1157 6907 5434 8002 68 6883 2243 1958 4717 2650 8176 2618 5332 3092 4051 9867 3495 8421 8545 7535 8024 9514 3335 2577 6386 4990 6320 8157 2744 408 954 3517 1145 5881 1800 3975 2952 7157 7217 6670 3720 8329 1134 1672 4326
126 4525 629 2379 3939 4238 8467 7464 52 2320 9085 3762 5414 6683 2248 4079 7714 2506 2372 6715 1356 5760 4625 6211 4593 1807 2569 4260 2708 4008 6575 9342 1842 3182 816 9992 6146 9327 4325 3347 5598 6334 2673 2192 6437 1925 1723 3737 6017 9856 1189 3451 9644 3408 7829 6115 2443 8656 9677 5054 3349 5863 1547 2704 1294 9979 2200 1697 6840 1889 1744 1743 4898 5744 3761 6384 7193 6110 821 1644 4812 4180 1553 6054 7133 6424 9017 4248 2637 5971 8477 7699 3472 7226 8757 3299 1718 679 9267 4899 2607 6438 7301 2450 3588 1511 4909 9765 536 2235 3563 5348 610 3722 5237 2319 5964 3867 1403 4946 721 2729 4405 510 6197 9616 6839
115 4479 9041 3889 9143 2785 4355 8426 9458 989 4648 7997 1957 3193 1046 7545 3512 5735 3261 5448 789 4109 823 655 4279 9729 9872 9357 1991 2887 4631 8099 3274 341 7966 2061 3875 1514 3754 6755 788 7020 966 1296 9498 5938 1387 1015 7854 5359 8088 3298 870 9813 7211 8966 585 5602 8389 2216 5100 2759 7208 1426 5609 5861 3174 1242 2769 2593 3855 8961 1338 2206 6450 4224 8978 2430 5358 3130 4687 6097 6248 343 5007 5299 2931 7111 6658 9234 5265 3806 7614 7549 2064 5400 1173 9308 3226 5584 7099 4698 9547 7886 2484 9318 7112 7921 9286 4895 4644 8265 5974 722 537 8492
127 6796 4958 8759 4696 8365 7978 4965 4033 3393 6610 2902 4694 8946 6282 6621 9331 1577 9994 1684 8098 8047 5487 5075 5902 830 9928 7866 9908 8050 3818 8899 6484 6277 9670 9686 2522 5452 9333 4964 9666 8837 5886 3557 9026 3819 5838 808 3113 969 521 7955 4892 7949 8118 7534 5756 8950 9957 568 5485 914 7423 9750 9959 3293 3400 2772 4721 7312 179 2242 7612 7623 9419 9898 1350 9226 1056 8333 7234 6446 4386 8555 327 2094 9967 3715 3431 7933 3259 4117 8078 5111 4959 7140 7942 1389 5218 8066 3948 5528 943 4482 4961 8277 3093 3678 7785 7454 7155 373 6886 8955 5190 2713 650 4313 4037 7520 4821 3506 7228 4067 1608 143 3220 7005
122 4609 4928 1799 6291 9097 8151 5516 3217 9778 8847 687 8319 6191 9106 5907 6719 4872 8564 758 8104 2755 8302 1067 1035 5492 1909 1029 410 4380 9627 8613 3486 6647 589 1869 4661 2489 2754 994 3571 5577 9217 9736 7262 1477 502 8661 5282 2860 826 3751 2670 3853 2608 1497 2589 1709 952 5637 397 1764 9406 8390 80 5908 863 5728 2326 1147 3922 5141 4564 2148 8786 8346 743 3430 8378 3982 5201 5187 6439 7001 3988 1933 4206 1802 4993 4913 9174 1117 6068 1093 95 8768 6638 6419 5642 4120 753 2134 4028 148 1281 1803 3 4332 9030 2700 6833 3805 6329 8387 5703 1413 7860 2465 1726 6162 8342 2044 8932
119 3503 1900 590 8574 5422 8327 5713 2232 4957 4360 167 8566 7917 1482 5910 3116 9377 154 3394 5467 6600 4518 8806 2515 1898 8403 4900 7782 5437 6430 2312 6468 5526 9991 6178 4878 6316 7825 3280 3035 8589 4531 3724 60 6549 1774 528 1605 7221 4406 6672 5919 1899 5134 1508 9259 7252 2198 6929 1995 17 1715 4092 2836 733 7055 9358 8940 4654 2898 7438 3740 1480 8384 2838 3537 4146 9374 9582 1883 2027 719 4324 3449 4548 5011 2158 6220 9999 5205 2819 3569 2804 5854 4364 7514 9761 9752 6432 1070 4199 1260 1720 8479 1064 5681 4645 487 7676 3529 3738 139 6752 4719 6296 201 2598 7097 2364
133 6579 8453 9235 3687 5220 7198 6975 3639 744 4113 123 6694 4302 1322 2005 6029 3705 2400 6932 65 3456 8005 538 6347 1735 9236 7075 7880 1536 8742 303 5832 8763 3892 573 6301 6157 1469 1728 5495 8462 5131 1143 8974 1465 564 3089 9172 9497 29 9457 3433 1841 3828 1100 1818 9293 2512 5901 1669 182 1211 9801 6306 4073 935 4682 8267 828 355 4751 4702 4417 8814 4968 4183 9693 2544 5865 6518 9215 6768 5042 9491 1044 2594 8371 184 7605 1500 8895 8822 2979 9032 2631 8908 9314 2722 5270 9762 3979 6349 9337 2866 4997 9606 6923 391 1560 6148 726 5653 5808 3901 7300 9741 4225 8040 2917 4211 7018 9560 642 778 5729 695 7279 8143 8625 8641 8015 9603 1639
120 4513 1365 1098 7597 5480 8820 8293 6557 2707 654 8436 1370 513 9350 2940 9075 4709 5481 5061 5913 2313 2186 3765 3713 5823 2901 9352 1532 8296 9162 9584 712 3661 2868 7060 3621 4716 5195 5707 9137 6593 4724 4012 2684 3203 7477 9499 5052 8197 142 7056 7115 1329 1858 5877 8193 7268 3233 5081 7710 5314 2083 7066 7841 9502 8734 6916 1864 7124 3412 8942 192 4556 9914 6521 6340 3224 4424 1629 5124 1530 4555 6044 1779 9649 3719 7439 9718 7974 8129 7114 2309 1136 4796 9416 4576 1913 3296 6513 5334 7747 3183 9964 2628 5183 2278 4454 8199 2989 6609 7593 9163 6769 5967 659 4264 9751 3125 7626 1124
116 8100 8060 3305 5118 2736 1119 7596 8149 4444 2524 4633 8205 885 9707 1315 3521 792 1700 5168 4989 817 4612 7029 7660 8245 7653 8009 7229 3688 3883 2294 3813 9594 6742 5211 1468 6567 4738 4783 89 1010 7128 3338 1122 7998 3645 1354 674 4377 9067 9329 7448 2855 604 8782 2839 8014 1582 5297 9378 4510 547 5274 8045 382 2985 7025 5519 7977 9002 2939 349 4050 2388 2096 7397 8185 2638 1602 1596 6397 9475 9958 3105 5045 9155 5440 3066 4165 5483 9468 4042 2121 2478 846 8874 7910 9993 5431 2672 578 6713 1620 3536 9089 1769 3154 2481 3218 580 4347 5871 8360 5772 8506 1542
105 3243 7920 3192 1378 6905 7428 4820 5754 86 7253 2783 7092 4941 3650 1381 9697 4359 5671 7475 2491 6978 7460 9714 9175 1591 8900 8330 3509 927 4520 39 3389 3446 5351 6096 3170 4809 9981 540 3943 6632 7755 6819 9071 3822 6482 1065 4840 9893 565 5763 5903 8279 7442 5224 9542 4453 9036 178 6395 8463 8680 3655 6333 7210 9806 1578 630 5530 6625 4553 246 7246 7418 3742 4978 2930 9346 6460 24 5114 567 7901 2233 6968 1703 1984 3580 775 2762 8011 6045 5465 8253 9608 8351 8061 6066 5352 1131 5028 7049 5918 2152 1108
113 7766 4715 2431 1634 9418 2112 6103 3205 388 5109 1068 9310 810 2368 8853 1501 5071 7888 3350 2862 6732 8183 1192 5472 6910 4301 4427 1750 6884 8034 312 4514 2287 6492 4584 9368 6194 5959 8554 7084 525 7506 2669 713 2131 3866 1227 6379 3033 8037 6857 8233 3108 6382 146 8456 6324 3619 102 3258 2505 9828 8120 8383 3340 1914 2832 6425 7107 5017 5615 416 7810 9668 3439 4305 1204 3202 9881 9287 9634 998 8752 7148 1702 702 563 832 822 6536 7528 6992 8570 8526 9518 8569 8719 6393 5014 4907 6279 6195 1836 3445 5436 4727 2520 9001 1649 92 9164 3694 7802
112 5649 26 3955 2087 9574 8861 5539 3410 4065 882 2212 2167 4773 2963 5804 8644 6004 2120 4392 4546 7090 9543 6175 4460 5770 1624 6183 3528 1212 9590 106 1321 9061 756 8111 5309 4650 1622 4195 2782 6684 5248 700 9595 2343 9296 4384 605 3150 1533 866 7235 3457 9821 165 6264 1610 4842 7126 5261 6783 5236 3073 9093 9804 8770 2490 839 637 6127 2504 9467 1814 632 8215 6804 2088 718 2146 7709 5397 7452 6272 4227 6009 5568 716 8328 7277 7846 5321 7557 6098 1265 3189 3973 8875 3107 5466 3386 1079 2066 9218 5288 6652 6997 8429 5491 6703 7687 3896 3984
126 320 7004 531 5801 1132 4598 5879 4218 5573 8489 1217 304 6378 8658 5113 2879 8701 8305 8586 2511 9126 8223 7996 3799 6856 2311 2418 8947 6421 5906 7993 1151 2470 1424 762 1473 7468 9779 6056 5002 2165 855 5331 4440 7850 6403 5841 1658 6860 9857 1589 2067 2451 2514 2894 5659 7273 1906 613 3146 9132 8188 852 7425 3037 9476 3018 9731 6552 4343 1908 709 8358 9662 344 477 5074 3837 6497 8912 2547 6595 5446 8059 7348 7536 5561 5500 9265 8354 5592 1298 1572 6292 1135 1888 9413 930 5721 4798 3404 8544 6400 8252 3132 689 7738 8657 2531 9517 2029 5719 9489 9394 3371 5704 3024 3613 8889 6879 5249 8182 9728 7289 4613 7280
121 2533 6835 8178 8070 9911 2421 1770 2703 6589 42 8465 6365 7083 9555 6842 9782 1580 2567 5022 7286 8958 7728 933 6142 7819 5930 3271 7254 455 1408 5928 1462 603 9916 836 5191 7402 7994 2858 2208 3467 3057 4552 1097 118 3139 7270 6456 6231 8091 7339 2601 793 7398 4886 2954 522 3160 3736 7830 9842 33 3833 1745 239 7620 6661 3575 3707 1510 5053 2664 386 1209 5354 5361 9214 2291 1996 3551 5257 2688 6116 4253 3851 8283 8691 2774 2383 7541 233 113 3027 3878 7048 3673 3766 2914 8992 3746 6177 5662 9919 5012 523 8963 9638 3138 1398 5599 812 7574 584 199 4766 2863 8871 5474 4242 2983 9422
112 9299 3716 2915 2828 1773 959 5157 7501 6925 9740 3025 7928 8693 8190 9796 155 8331 5394 3958 4475 8272 4413 7554 2386 5636 4888 9384 5600 569 548 9157 3166 9618 5219 2752 9789 3421 5914 7986 3471 6956 6491 3303 4866 7355 2761 5931 9252 2837 7129 3070 2842 8910 1739 1694 7635 4451 6022 3287 2846 9885 683 3884 3787 1 114 1359 1581 8025 2519 3171 8800 8418 9219 2812 9508 4814 379 7580 1109 4705 5727 2570 231 3469 9461 6584 625 9845 4940 9451 7884 2306 7118 2950 5575 4848 3236 601 295 3991 7689 1396 342 7356 1945 1993 9469 804 4281 9927 3148
109 1860 4726 7174 275 8941 8685 3029 7276 9185 5034 394 5652 9534 8747 9512 7656 2128 3696 7563 5730 4003 5948 69 5952 2507 4103 1999 7433 402 2973 7068 7891 9324 5250 6381 6188 2998 57 8200 8962 1897 3533 5733 616 3418 9996 5798 5413 6927 9230 666 5820 3753 482 8923 4194 9233 348 3581 5944 4689 4936 6398 1379 2369 7513 3136 6776 9412 8286 7453 9599 1487 3455 6641 3816 8030 7578 2439 8726 760 1050 9920 5285 8892 4069 9658 7381 6748 2419 6276 511 3812 4854 1226 8379 6058 9743 4836 7873 2156 6946 1254 7121 2585 9787 2193 7532 1946
113 9953 166 1711 3568 493 7941 7331 3282 7904 8592 4924 3023 7223 5626 8646 9029 8105 5776 3286 3590 2610 9864 7197 5084 4391 5125 5428 1931 7284 2371 6751 4443 5494 1233 6002 2107 7627 9454 7863 2943 9222 8274 5337 3242 6740 5501 5554 8987 6891 3790 1734 163 9840 6100 1399 1886 7495 2100 9715 9619 6389 3505 4998 3360 4539 2147 1544 3870 6696 4358 4215 5751 1310 4569 294 1966 9297 8255 9369 2509 6773 612 4213 4967 4807 4163 5107 7094 5064 2698 4353 19 9827 2624 2466 8340 3669 6014 4963 2123 9120 8809 7396 6214 4515 7616 7652 4467 1112 6759 2295 2857 1193
116 370 955 3051 583 8528 557 1164 230 1881 8567 9844 9275 4178 7062 1048 8636 2710 78 9504 9492 9047 4703 4604 9407 8242 519 3219 9008 5340 1503 1339 6273 9011 3031 3808 1104 5170 219 8108 7327 8376 6416 7985 6343 5315 4591 5958 5836 9238 4382 7152 3630 1907 5347 4906 5753 9551 1019 5605 8033 9712 7655 3905 8487 2617 3308 9166 9725 7642 9970 8615 2794 772 2351 1263 4641 9434 5550 1600 2779 5986 5684 6940 4549 6352 8067 7317 3750 8594 3711 8101 7984 3143 9439 7081 6138 28 6270 2095 9561 6745 7540 9699 2222 4001 1169 1916 3356 8102 8079 5209 7192 1878 517 3363 7550
123 1384 4132 1175 5135 6727 4059 7244 3556 4220 4433 3176 4646 226 4611 3090 8334 5936 4541 2117 5893 2850 3690 9516 7064 5013 9037 791 4124 595 2912 1438 6928 8591 4483 5715 4255 9231 1306 500 1953 452 7929 463 2462 4247 8670 2105 594 8357 6550 2253 6642 2054 2219 2401 2179 5769 6717 4560 1548 4056 6872 7872 7773 9335 8337 8762 7451 4524 6637 7184 5545 2799 6866 2424 4426 6563 151 8443 1647 8608 7412 3574 7769 4734 7353 8640 9886 5997 1884 1324 705 1334 9894 1032 7361 6533 6687 4908 4052 5761 9626 2162 329 9171 9038 4378 6418 4287 8588 2614 3186 8949 7 7368 3831 5342 8028 7019 3020 9417 3599 4229
112 4733 4494 8629 533 7183 1613 6889 877 5620 4200 363 9781 7408 9961 7102 2256 3675 3600 7074 6302 9402 2635 2267 3757 3497 1300 5535 9747 4399 9349 9711 3993 2293 9688 1302 5263 2417 3159 134 9717 1724 4904 4505 9690 4580 7399 2218 1923 8023 3003 8115 5845 9708 4782 2228 4068 8300 4149 596 5542 8915 8989 746 8411 7380 94 5555 622 1078 5287 7461 7796 3607 6265 70 4435 8434 1571 1368 975 7013 3388 1737 4086 678 7185 4070 3677 4887 9084 893 5057 5970 7602 6816 1115 5840 6143 9 6458 5828 5569 6599 5802 6702 8318 4115 7670 1811 9135 4606 2226
116 3102 6448 8973 4014 7050 802 5712 6562 3904 3086 5447 6057 361 3632 6155 5383 1041 1304 3304 9766 3618 4558 2058 7587 8236 9415 6721 4446 7751 9362 9808 4765 4626 1830 3983 1730 6901 1785 1786 9675 9880 5456 819 732 9000 6705 2353 9014 9969 7906 1327 2404 101 5039 9998 4537 9682 9444 1650 9963 4002 3323 252 6043 2875 6000 3767 2619 9044 1675 2135 8141 6099 7014 8524 4619 153 9902 1141 2115 220 3048 2921 7100 8046 3473 7882 243 5484 3355 7431 9139 4826 4292 4822 3100 1910 6441 4691 4572 8556 646 8106 1714 8515 9134 1792 2975 5410 9328 7147 9756 3291 6906 6700 6153
105 7481 1085 4948 7044 9987 5650 5088 7445 3525 9167 4922 1934 3718 673 7120 126 1445 4841 4306 6509 5847 651 7130 7369 2831 2057 7346 9393 395 1513 7465 350 5934 9509 1924 7879 8497 9805 8243 6259 8968 9473 14 3788 7363 7480 2385 9906 4139 639 4171 6040 9271 9436 4756 2508 2375 3949 3899 9268 2362 2116 2682 7586 7539 5880 8618 6741 7328 1224 4064 6622 1960 1181 5810 1283 4980 7319 4418 3395 550 1053 5182 5855 4442 4275 3101 3161 8498 3246 4657 2084 2715 2483 619 3129 7558 9304 3354 4240 4015 2350 2195 8536 6902
122 2922 3485 3010 5098 6778 664 5920 249 2767 7476 9889 58 1421 2070 258 7365 3039 5121 3237 6534 9955 1742 1570 3501 2164 2568 8464 3441 1576 5614 2677 1272 2436 5021 6059 9276 283 306 1007 4468 8480 9544 2869 1202 3314 1593 5198 3804 7963 22 501 9400 9156 8317 6754 1559 2809 5544 368 5231 2479 4543 8690 1873 3874 4528 3564 9968 5758 6766 615 4616 6898 1640 8027 488 5512 7973 7954 889 7406 23 6936 1286 9676 7202 6117 2884 1234 9653 7296 3141 5506 3380 2771 9563 8780 9863 8476 6150 2300 6275 3776 3477 8830 6948 6215 6234 9519 8494 5693 6221 1517 4599 8433 5546 333 8071 2719 5950 3636 627
118 2636 8460 291 8474 8219 2833 4600 3468 4672 1691 314 1474 1794 5469 7265 6369 318 884 2616 7922 1838 1472 7305 7894 4771 4975 6300 3565 1586 6193 7679 1558 4290 1246 4458 1636 2263 7905 5387 3784 8096 9604 9144 957 2496 2268 5672 4080 4166 3416 9566 7582 9220 4319 5164 7360 16 7544 1214 3989 5973 1393 9098 267 896 9031 2623 5184 140 2474 3366 3946 2335 5700 7932 3300 5814 4643 535 7429 425 7650 2422 5242 9976 2592 6789 3115 1463 3290 6015 9012 1854 8294 9647 2257 8439 7523 2910 5521 7826 2284 446 8114 1496 6685 8914 8232 9477 2574 9628 5188 6797 6021 8864 9147 6998 5368
118 7035 5284 7606 1507 2413 2063 4501 8628 6201 227 8529 8924 5463 7752 5424 3647 3091 8998 5872 7595 393 5851 9068 5531 5415 1619 5876 902 4704 8362 5030 107 1731 3566 50 4893 2239 7964 8997 5887 1829 2991 4013 173 2549 770 1084 1376 1760 7975 8909 9256 2047 3432 6781 6436 5589 9621 5252 3098 4692 774 9923 8572 5541 5579 4492 3903 90 8234 1360 3710 5678 7440 1433 8152 8901 2499 2102 6720 3763 761 6844 7173 1963 5559 5049 9183 3846 7845 5892 7459 3294 8313 2177 9181 8315 6733 5433 1239 5143 5355 9553 3641 2990 7378 8380 8773 944 5811 3333 6722 1538 4788 514 820 7390 8534
121 6896 6980 3378 8512 6547 3747 2551 4024 6546 3362 9386 7345 987 8887 9601 1518 9330 8435 215 234 3801 2174 6617 621 9326 3902 3803 8147 5335 6823 750 693 7144 2449 5047 572 1020 3697 8639 5266 351 1471 9510 9359 4029 375 9687 3844 7611 2542 2292 1207 5737 364 8224 1880 5200 1642 7665 1820 4857 5527 6895 7849 3157 1979 7778 2486 6205 7347 9339 5294 6392 6830 6124 5268 3558 9798 8649 3576 3593 1269 3773 2849 2690 1821 5537 2220 899 7649 781 4855 6874 2238 4277 2876 1343 4404 2197 4952 9184 8872 6939 453 9153 2453 9437 6619 6030 9303 3163 9465 4949 2045 4159 5612 4945 8173 2086 4742 6122
115 38 8918 8749 8356 5732 4151 4804 1959 4312 2938 3552 30 6295 3463 3886 9646 1182 8320 6679 494 4592 7698 4376 2709 1573 6180 1817 1030 6020 7770 6210 3717 803 254 6025 6904 5522 5992 371 8696 3820 6767 1243 6803 1531 5698 144 4749 9242 9989 5509 1055 8718 2003 2817 4544 5346 906 2897 5161 2816 4713 897 9312 8537 7063 5853 3212 835 9585 5806 7082 3417 1601 8836 1261 8834 1223 8882 9850 3442 7266 6633 8609 8125 8231 2438 467 6572 449 4859 8601 8848 3392 4234 8616 3144 6390 6338 4337 8134 4706 2221 8097 3232 5213 7818 8080 1780 8530 7260 3295 6913 1325 457
121 8053 9598 7488 4776 7781 6131 6412 2813 8767 7341 5621 4400 2559 5965 9141 6111 6991 6864 2937 9629 5390 729 6368 1849 485 7861 1872 7730 4502 8103 6986 3522 188 7705 6676 3425 5617 4635 3871 1106 1123 3910 5203 1751 9830 723 316 6937 2104 6764 9633 322 7991 436 7376 2299 1980 5520 156 9442 2125 4879 5899 2458 4291 9484 8146 3345 3642 2595 6026 3962 3674 1031 7720 5160 8172 5303 1877 4532 8791 883 5391 1771 4193 6130 71 3945 7881 4995 556 7416 1545 2492 280 6821 4897 1008 1955 3052 3596 8140 6698 4228 7502 1721 3676 7774 862 7163 6255 3562 6709 9210 6305 8938 2141 6129 3235 286 5423
110 1158 35 9648 5104 703 4747 458 34 1177 3045 2960 9591 6336 1725 4177 7344 7677 9322 9193 7040 8367 9294 4297 5486 9361 2275 9488 1956 4019 2140 9549 1047 7719 4770 3544 7608 9901 4754 1612 9363 7170 7458 2240 9464 6348 5743 1040 7435 1835 2339 2334 8838 2725 6828 3527 466 3239 688 3972 7389 2886 3124 7776 8230 8600 1520 1775 4533 121 3681 1319 3631 3578 7694 7165 5993 8760 2414 1419 2540 3488 7559 6464 4383 6489 7218 3142 3264 7195 3785 8449 7764 8499 7695 9133 177 634 6523 5741 1584 3980 5900 8471 1944 7737 7232 7410 9278 4438 5176
114 9107 6926 4960 9868 5540 6520 7801 1812 3359 1987 8458 6506 3247 2409 5576 3914 5701 324 6353 8057 1116 4628 2340 5050 6868 1976 6586 7832 2942 2497 2495 8596 1431 2378 4938 2172 8018 7643 2106 8163 1940 6818 3546 1748 5305 5935 1372 879 5000 6811 9941 405 7324 6710 9848 5215 9800 7790 8216 1543 3794 6867 6930 7470 5145 8266 4823 2883 5778 6648 5782 5981 6258 6947 7967 6469 7387 6444 972 3044 7199 3798 7898 1989 1155 7835 6581 3775 5353 7374 9191 2230 32 1528 869 7671 2646 3598 8409 7516 5489 7283 8913 7907 1892 5746 8737 8982 2510 2433 5817 9926 8247 1859
116 147 1148 865 9078 8407 74 5995 2308 7567 3693 9340 8627 8933 7568 8361 3128 9654 3862 2298 9531 9245 1516 5889 7248 2606 7372 471 5259 5041 168 8244 185 5080 9058 607 8336 6372 4087 6363 5137 9064 1667 1428 4027 8682 4340 6524 4853 6072 1430 7579 7206 3000 1346 4986 2108 6114 6082 4187 2252 6119 9300 7479 1457 3201 4106 2535 8761 2565 3795 3390 949 9197 9837 73 4839 7026 6650 795 5156 4617 5755 2017 1088 8902 4976 1866 1568 561 7940 5972 3384 706 3050 591 1973 7441 5154 1621 2333 7041 8841 2460 9138 4445 7944 8235 292 5324 3358 6247 3523 3685 465 6140 9092
123 9274 7377 6179 8877 4082 9719 2818 757 6187 3699 6627 5551 62 2457 1756 8142 8920 479 6653 937 5665 1252 2949 7936 5380 5534 9302 3781 7808 777 9678 4947 5004 6596 5989 1128 5961 8285 982 7862 9780 5618 3786 6505 5212 7546 2611 7813 2992 6514 3709 9024 7957 9733 7837 8345 3771 9203 5386 7644 2203 2971 2381 5366 3207 3941 7619 9040 8984 5792 75 6894 4534 5860 1682 9282 218 5538 9123 8995 2079 5083 9077 5036 4209 1377 1251 2632 8926 7651 456 981 7800 1540 843 6890 9854 6321 6486 3272 974 8660 5816 7288 287 1118 3748 7783 7553 2732 8826 6880 4057 305 1988 3119 633 5980 2189 5557 6743 3043 6681
120 9421 1950 786 8935 8559 2981 4235 8192 3684 5044 4168 419 6526 7122 9722 5476 3060 8204 7006 6053 7798 7362 5714 5206 8373 9505 4148 8369 2139 3733 6449 9433 7827 3372 5152 7645 7617 48 888 464 3316 9113 8692 1363 6682 3137 6185 1400 1733 157 3238 4526 686 7250 2273 2090 7447 3876 4883 1943 4794 1539 5942 2716 9087 9083 2970 6971 9681 3764 5633 4130 8451 3704 1778 3802 9997 1565 2538 5298 827 5996 7351 8944 3215 3341 6993 4350 3241 665 8086 8818 9738 6539 2918 1551 9506 725 5384 6466 2647 8905 7912 7404 7382 6355 6551 4707 3560 8606 5450 2124 919 9270 2071 9695 9288 2996 6805 9727
121 9190 8985 8238 2871 9052 1521 3026 2986 1790 8482 3809 7916 3318 6049 4690 8854 6636 315 6084 8689 7071 2269 755 7511 872 1752 7498 9366 2494 2190 6304 53 6485 5291 951 1423 1081 1013 1401 4819 6580 1196 7965 8364 7335 9315 9843 2342 9239 7200 5630 4686 3703 5245 2659 9279 2982 4785 1904 8160 2675 9319 9758 1837 715 3913 7366 4862 108 3998 9587 4186 5162 372 3074 768 7530 7972 2847 5667 9876 9772 7686 1867 8440 1367 3262 8175 6756 7682 950 8891 4803 4097 7238 3817 2627 205 1673 7132 6164 7393 9360 8981 8020 4430 1839 3164 4283 9201 2518 4573 1758 7662 4030 378 3843 711 4512 1452 5246
120 7795 1201 2068 6087 4150 1429 2999 6036 2916 3121 8133 1628 618 4491 115 4671 8731 7258 9128 6544 2007 4129 6060 8486 4049 1237 7746 3954 3637 321 6361 4926 7669 7831 5960 6854 5043 2019 9734 8081 4563 8287 9895 7618 447 8195 4110 7256 162 2681 3498 4843 5582 5174 4098 848 3256 5894 6216 4174 4837 5954 1059 5567 3672 3691 7851 9600 6540 5173 8159 7962 88 1855 99 9229 7685 6529 340 7395 4138 8258 2331 8427 6601 6974 9301 6182 5393 6198 8323 5204 3444 8203 5796 7290 2554 5106 1323 5651 5365 3739 4411 742 332 3257 2905 6723 6695 9764 2407 77 2805 2052 141 9447 6406 2435 1373 915
116 5821 1852 2851 4586 7079 1275 8795 4004 8736 2613 7059 3616 1915 9515 2445 6933 8194 7375 8756 6132 37 2316 5132 8212 7449 3055 4329 7816 1441 4838 684 8314 3310 2482 1645 21 8863 8113 7524 9228 3629 6656 4145 6104 281 9199 9148 8459 3567 8976 4805 7186 4996 7641 131 7138 5668 5389 9292 1692 2777 5625 1407 307 4375 4877 9622 539 6166 8784 8164 5210 10 3961 1762 240 2645 9624 9247 7307 6639 2361 4885 253 6005 4365 2829 2098 6697 5130 6105 506 9438 2393 9915 4741 7927 8576 1313 1978 4929 4323 9124 6578 9572 5449 1235 15 747 2261 212 3339 3834 4021 4522 5777
111 9934 6528 437 9462 1228 9689 8579 2653 3118 7213 8397 429 6812 8156 8284 9382 1034 2572 3178 3888 9526 9704 6235 4465 5639 9583 3543 7373 6374 5015 8295 6011 1045 4718 2749 8372 8999 8058 9224 7673 9799 2310 8550 3723 2013 976 8280 597 1478 6101 5373 2599 6440 2042 7142 3927 9332 9086 1562 8735 4979 6184 2844 7565 3860 1095 1288 3662 6746 546 5837 1865 7969 9713 7065 9737 8597 9115 7308 9683 3111 1919 6832 6144 670 4100 748 2668 9396 2254 1727 8796 6042 4233 2236 6644 5032 7953 2712 5296 4123 276 2136 6499 2503 5499 696 1282 7194 6189 8202
124 6995 5345 2021 3188 7311 1708 1765 3791 6156 3906 6606 4605 9441 876 2820 5734 7701 3344 9578 7807 7016 2984 2046 9397 207 8748 1604 9659 5706 9984 242 2658 2321 4937 5275 9056 8112 4081 858 8227 5023 7585 3659 5864 145 7735 3379 7675 1331 7343 3553 6964 7091 9596 878 8666 5402 5513 6230 4973 7588 1534 6788 3577 9982 9550 4914 5031 9474 549 9909 4801 7581 9370 5396 562 6537 5510 5742 5722 3592 7748 837 8413 4670 7843 5139 3493 9635 6080 7037 7179 120 334 2352 6739 3254 5478 6500 1757 2365 6673 7931 8840 9103 5260 5392 2528 9945 4903 7690 2285 7357 6914 7067 7890 2420 5852 6219 5745 41 6018 1664 7531
119 7692 3573 7749 3397 3646 3491 9053 4099 6831 861 3382 8573 3934 4054 3997 9921 8739 6019 9425 3960 9290 2225 5785 5548 6598 387 8738 5781 9965 5468 9749 5692 1371 5445 7002 4778 1655 825 4407 6970 3507 2791 5875 4304 195 7852 648 2472 3526 8936 5648 3140 5010 8503 5232 7426 8706 3284 208 734 2526 9577 3741 8268 3926 5736 8808 1704 8858 1436 2114 6631 6504 1180 1021 4437 9786 3464 3221 2015 6069 3664 7995 2803 7961 6402 1156 6949 2810 3077 5673 867 9161 186 2665 9266 1406 8522 6286 6241 1096 2945 3244 9334 3725 3353 6787 4927 1449 993 7793 7633 5374 4763 4339 7407 7411 2576 8804
114 8655 6330 7613 5418 478 2410 7732 5401 2196 4649 2501 2283 6987 4385 6892 6454 241 8664 51 4402 1241 1652 1107 492 7664 6037 2006 5171 6965 4864 7282 1603 7537 7190 8583 2002 8873 6613 6522 1810 3996 5067 2204 5896 8903 9099 8003 3470 4023 5766 6620 5325 7556 9657 4935 7865 5640 9939 965 2941 2033 6808 5830 2792 887 5518 749 8414 8073 6607 8562 6944 3122 328 3974 9223 7264 3028 8969 2853 3967 5369 5009 7046 8488 8500 9818 367 7607 8681 1312 685 6849 983 8504 4184 7116 4931 5306 5677 4701 3500 7259 6284 1453 6876 274 6938 7057 6359 7203 534 3162 454
114 1448 9338 2968 6095 8404 5912 5702 8835 8723 5101 7804 6753 2890 6094 9523 6960 6375 9448 5451 6912 9090 9131 5829 9748 5532 3745 8937 6791 1293 1425 3402 6758 3964 9313 4545 6718 5827 6729 5430 2089 9951 8716 2640 7417 4542 4547 4455 2150 3583 3830 1003 6655 6643 2357 136 4725 3516 5338 8056 2234 404 2644 8643 2530 4271 8470 9562 6452 4464 5444 152 7758 5455 5375 2919 9645 4101 3940 5641 1662 6281 1197 7463 5208 2000 571 164 6635 8166 7281 4527 2201 1351 8122 4490 5764 8856 7388 440 5807 4422 1982 5726 7038 8886 4597 1160 5086 3963 7708 196 277 5809 4128
122 4551 4207 3194 4397 5610 4620 6802 5253 6357 8702 7415 2346 2073 9538 9490 9692 5357 7247 3064 5616 3019 4787 9949 881 6555 8332 3496 3783 8509 9354 7070 236 3032 9466 9364 1311 2001 8217 7703 1016 818 3245 104 1102 4950 9530 7104 8894 9860 8431 4182 2660 3656 6957 2018 3351 7887 3908 5300 6515 6985 1875 3721 4517 9971 7236 2142 7161 5957 3815 1712 9177 5709 6871 8684 4538 3001 8077 7797 6442 4488 1256 1663 7970 2271 6051 2010 4373 5508 3845 2671 380 5923 6559 667 5060 7915 8751 5379 1450 5349 7923 5254 9611 7171 5024 3158 813 7028 7729 337 7053 588 1834 4588 7145 9661 842 5586 5271 8124 1186
112 7533 8069 6843 1706 7874 5194 4309 4768 8677 5646 6674 6280 5765 1986 8775 6779 9575 9823 1952 1961 2184 6495 2521 9962 3965 6128 8090 3487 6081 6038 1358 8511 8249 5163 5498 5849 4169 3873 5493 7201 1176 4278 8624 8466 647 5813 8851 3447 2382 5233 6447 1766 5984 799 6545 2367 9503 7330 2643 6806 9455 356 8531 5116 9829 6387 8326 1111 5151 2265 6160 1661 7629 6269 4891 2137 3330 5326 3852 6410 8180 6121 417 5102 529 8929 7968 4511 3602 5604 3877 1166 4873 7538 8785 6417 1787 9039 1722 9249 4781 4395 105 7078 6426 3103 8743 1028 9005 8375 6190 7424
110 3701 4828 5399 5370 6731 3342 5318 6771 9918 2441 3076 4011 5968 838 853 6577 132 2679 5225 4189 8630 4984 8698 7939 582 4296 3054 6861 3768 2603 5951 422 6467 6714 9411 9046 2987 4158 5797 9280 6651 4035 5207 3585 2626 8898 40 520 6848 3594 5421 2747 6123 5856 1167 5398 859 2848 2974 3414 8827 8994 4387 2928 4685 1203 2338 1411 3334 4954 5556 1002 9866 3848 5333 8758 3839 9988 4091 9792 9730 7272 5283 5085 5018 9891 8263 948 5276 6477 5517 7154 9055 2176 7576 5056 9720 1052 7494 170 2936 5269 560 824 4462 9929 7222 3970 6690 5322
114 5230 7367 6511 8675 4155 5341 9082 5661 7196 5059 2170 9847 9445 4351 8507 9470 7725 7503 4456 938 331 7166 4026 346 8350 450 2797 360 759 3579 7575 1781 543 8309 1432 844 7297 443 9904 6399 697 8514 5459 285 5177 2037 6077 3789 4142 2429 4894 8904 7853 4318 5947 8225 3423 2425 3657 3169 8442 9788 2405 5 4675 3021 6845 8136 5608 8144 769 602 9630 2213 9281 8777 4122 997 6893 2026 3216 3120 1937 3968 1185 1939 2834 6829 6108 9614 6428 1374 9834 2395 9121 6590 4370 3281 9768 3969 5562 7517 921 7856 3285 1364 2398 6725 8951 5779 3078 7269 172 2437
120 3311 8343 8893 398 5286 5710 5264 6047 3427 8181 4730 4208 6512 8468 1033 6897 680 3255 4985 1942 9149 197 3978 3810 2464 4662 4504 4890 672 8721 8169 9306 2332 1719 1887 1948 2315 4871 9007 3861 5070 1705 7988 2648 6429 4637 5676 213 9003 5155 8803 9546 6109 8355 4943 3436 968 917 7287 7740 2258 6814 2835 3868 6490 1417 7913 434 2825 2906 8996 6478 8138 3065 3151 8778 8729 7306 3229 2620 3112 8842 4655 3554 9373 8925 7334 6666 3917 5917 3453 4420 5927 6314 2485 4046 9776 2049 5628 2948 1470 8980 5884 8220 7500 645 2899 9347 5344 6483 7214 8240 4356 2034 4762 4293 8712 2962 4322 9533
126 6826 9922 6560 298 7761 5068 1270 555 6711 644 1554 1504 3083 5904 5987 2394 3465 3916 6238 3106 7791 738 7164 4257 3915 9344 3836 6950 3053 656 9973 6660 2411 9072 6538 9822 5571 4676 3007 3825 2600 9520 9855 9456 2354 5822 7875 9556 4639 7030 7176 7734 3476 3890 2159 6414 4623 2169 9006 8419 8239 5234 2728 8732 2097 8229 5301 2724 7693 6799 5578 986 669 235 7207 7036 9910 5932 9873 6841 7950 6465 6955 9664 1427 3075 7326 7666 3792 7364 2301 4901 2780 9641 1902 6792 4856 1391 4061 614 392 9395 6763 6918 2961 1353 6236 9260 4962 3842 4669 4421 8523 45 5632 4093 435 898 3167 6217 7469 4389 545 598 9785 3779
111 6664 4244 7011 2286 1361 1685 1054 953 7806 932 2493 7566 7836 553 130 8860 5757 247 8943 3729 5694 4425 7241 5066 4743 2282 7743 970 3041 9376 599 1683 2500 3881 6141 3072 8198 7239 1437 2980 4214 6501 3648 6283 6480 1824 2693 3204 4977 794 7304 3774 6556 4321 5343 7271 6951 5890 2356 2699 9478 2471 5240 8187 9625 5316 4596 916 9060 1929 1575 9081 2861 800 3591 4535 8282 4198 7753 7182 1918 3760 5977 9507 2149 4237 8048 7135 7162 288 1617 8044 2895 1137 5356 2391 2076 6976 3249 6003 9613 2314 6471 6846 7160 6289 5688 4912 1479 5656 4651
120 692 4126 1278 4530 1486 7042 6312 2473 6603 3920 3610 7562 3211 9852 7255 8585 9879 3297 2964 7903 5065 9557 5378 5833 325 1676 7313 3513 8347 8774 4498 8715 4911 6838 3267 82 7844 6699 1113 1903 7784 6565 5409 6250 3435 1258 4369 9990 289 8377 7316 4040 8303 8728 8603 978 5749 8859 4308 3307 3331 5963 8787 4077 6315 5158 2935 2652 5235 2743 3200 9178 4094 9443 2661 7484 7113 2447 831 1488 3840 7136 6945 8798 8952 5966 4341 4133 7323 6654 2830 4346 1264 9387 1825 4267 8385 5229 7072 3582 9558 7900 4571 4710 3309 5891 2932 9424 8010 5058 7604 8254 2428 1126 4852 6869 5794 6120 3976 9783
116 1345 319 4905 9449 9892 925 4791 9571 754 2758 6427 9263 4753 6541 3692 8626 6385 652 5462 5277 6331 2194 6408 149 6911 1738 5834 7015 4428 4876 2966 606 8395 880 8560 3420 4999 1460 6032 2527 4834 6303 8956 7457 7310 9769 171 508 4192 996 5685 8704 3006 6351 8883 6798 7762 6920 8510 5460 3190 1027 6507 251 8423 6988 6794 4683 2656 3683 7291 9513 9905 717 7759 7080 1795 2933 581 8087 6356 296 7043 8788 5818 3603 1295 3322 5998 1637 5241 1174 5503 4589 3667 4561 4173 8557 4472 736 8772 3923 5945 1405 1646 8599 7492 2392 9127 7123 1626 1992 1616 8652 2957 5008
124 4412 8771 7096 444 9244 3079 5885 9285 3994 8741 3173 1567 8261 6738 9639 2488 4471 864 7098 5441 8153 1935 901 2389 1290 190 2870 1732 515 5090 7976 9952 5069 2175 8013 7314 3832 3104 1698 6070 8740 8325 9051 668 9221 3660 7663 8662 5664 4562 9432 4595 1210 6007 8587 3406 2994 8578 8386 6809 4668 9257 4125 3348 2740 9091 3686 7486 3377 1200 8495 1215 1550 5593 8213 3405 4607 9383 6888 2399 4684 2043 2956 1922 4642 7022 2534 1483 3796 4919 3935 5169 1161 2032 4250 868 8505 9472 5969 2789 7828 3399 5376 2730 3273 1231 4601 1699 3730 6366 3628 9482 5385 7858 2461 4379 2874 481 5251 266 8623 8917 9102 2561
121 7499 636 6770 9169 6358 7590 1670 2602 3772 5831 6006 992 5842 5585 4363 4104 5172 6887 6605 4175 8543 947 9065 9059 5857 4390 6257 3706 7507 8250 6689 5477 3452 3325 1891 5077 2376 4249 1230 2127 1139 1188 7868 7572 421 8669 5239 1205 6023 3597 3880 8382 6924 7971 9632 1850 8207 4994 9865 1813 480 505 2237 362 3893 8896 1827 8400 2133 4760 4381 6151 6730 4252 7754 9705 2403 7315 109 2129 6152 4481 9336 6693 2317 66 691 2753 4846 3482 423 3283 4779 3438 9623 2634 6558 8039 1768 1274 9882 4920 8888 1759 428 6479 5597 6972 3601 4034 1171 6245 1638 1303 3149 5805 8402 6346 8191 150 7548
113 5063 6554 7419 7358 1678 8454 9202 4867 4835 6050 6852 4181 6039 9597 544 1222 624 7600 2720 1142 6463 2801 6822 1153 495 7450 9656 2502 5767 9669 4858 5153 4256 4176 6088 6663 5280 4681 9875 5775 5858 5623 9112 6474 9643 8825 4276 6244 7212 3373 5488 1276 7855 7896 8491 2030 8876 6212 7462 7799 900 5868 3008 8353 7713 3396 7817 9802 5140 8581 4270 2723 1874 2687 4167 7674 2210 8139 1039 8016 3484 1729 4062 1105 1574 1879 4825 3857 4792 3364 2795 8991 3950 9195 924 6367 2674 3145 875 2245 8792 2099 1110 5771 4095 2055 9956 6171 6031 4594 4105 7945 6919
115 7505 2953 9420 1962 3361 9833 7935 5839 8568 5117 6583 1194 541 4108 9325 1014 3071 2223 7840 7034 576 811 55 369 1806 2480 6431 8709 5005 8911 3626 3324 5647 9251 3749 1208 8694 1804 9724 3930 468 4088 2741 1125 2800 1932 8983 7765 5496 3147 2035 8811 5607 6678 3460 9824 8548 6837 566 9323 1695 1404 7131 4933 9759 4368 8189 3252 414 6168 1668 7638 2778 2697 7624 2934 5412 4618 5292 9254 1512 8019 9703 558 7105 9636 8035 8582 1713 4449 1693 7386 7467 1561 124 8307 4799 6757 5691 9723 9380 4902 1791 3679 2993 9569 8672 1073 9096 2702 6413 7630 6 100 3114
110 5199 3088 4971 7909 8008 5308 8026 2557 8075 2543 5405 345 2329 5697 5878 3387 1060 9537 9851 587 7902 1896 8251 3541 5307 4295 5027 8673 6688 4191 7914 2787 2888 1308 8366 2822 3535 2768 913 4219 8312 8621 9773 2289 676 8678 8954 3385 484 9674 7637 3912 7980 4559 6237 5302 158 3502 9770 4777 7371 8833 3275 7095 47 8525 3398 7756 1082 4371 6126 7924 6807 6750 7231 3126 470 5949 3490 1025 7899 6074 2550 7158 5812 3474 5133 6260 8533 4603 4827 43 8521 2244 2560 8934 4750 7981 8668 7683 3369 8765 4516 1149 4137 6903 1332 1442 5514 9709
117 202 7823 9950 1129 6875 527 8448 5686 1772 682 6498 1051 6686 6820 1418 7592 7245 8004 3633 1707 5123 2305 7742 6576 1061 1238 3424 1195 84 6588 4362 3225 911 18 1556 1893 1797 2924 8121 7839 2249 6665 1983 3185 4810 3195 7336 7134 4147 3925 2157 6873 8683 469 4579 2440 6137 8064 8619 6391 9062 5243 8291 7045 169 7989 9521 841 3800 2773 3966 6865 1458 9672 5093 2532 4076 5873 3897 6024 7892 5826 8671 1444 3508 4047 7243 2903 1255 4196 7338 1284 2807 9151 7225 3995 8222 2151 1066 2373 1885 407 0 3133 5035 3326 6307 1385 7169 6200 97 805 1057 737 2468 6322 7383
120 1247 7792 5407 2689 8665 6760 2731 1625 6525 1092 7869 2304 2214 8441 701 6364 2796 9146 7789 9367 8967 942 8707 5408 807 2516 3887 7889 4477 12 3153 2904 9255 8653 661 1788 6649 8916 3440 9698 1402 7299 9742 9883 8695 909 9826 5994 1819 1749 4615 2487 1380 2012 5953 586 8368 6090 8135 7220 4265 7724 6530 4775 9152 7370 117 7702 7432 245 4127 8304 1747 3712 6033 1326 1165 1611 9375 9581 9797 8571 4764 5595 3313 8084 9309 9486 6075 8428 7422 8170 2303 6388 2323 3587 5110 6790 980 6287 8617 3778 229 6170 7772 5985 3005 9262 2229 5882 1894 1823 1382 6225 6016 1815 9655 3611 98 13
115 5895 5255 9494 1871 6243 6041 9066 4815 3184 3909 1170 1967 5126 6553 2900 6294 3891 5768 1146 3944 308 4246 5076 2718 2742 8866 4568 2345 3663 7237 7352 4981 3559 2041 3605 1828 6941 1454 3731 5634 9791 660 4226 1912 8700 383 9240 6420 4630 2683 4006 9896 3094 8310 617 7767 7883 999 1355 2080 3606 9903 5293 2276 4452 4258 2463 5657 5800 160 2859 4032 46 1012 5643 9405 6516 6013 4172 424 779 4487 8022 3409 1090 133 6139 3929 6434 9042 1783 9365 9187 284 7103 9841 1808 8271 2380 431 9593 8878 2217 4829 6246 6149 2171 9122 7023 903 3728 6847 1614 5587 5687
120 2563 400 9114 5588 886 8275 3049 5835 3210 3082 2808 7867 3999 2337 2008 6784 9269 3248 4832 4582 6568 2427 5197 8214 1340 6209 6691 7897 7911 7088 2318 59 1172 1042 9884 9565 4071 6125 609 3510 1659 1563 9588 128 6165 8201 2060 6089 3367 3009 5217 9372 7577 1451 6470 1798 8708 4403 2279 5310 3461 3530 5181 359 5716 9812 7007 4969 4349 2746 1341 2138 2416 2246 8485 4459 4830 532 873 5020 5752 796 2459 2412 7768 4910 6942 4463 2705 5717 297 4700 191 1853 2406 1618 6232 6380 9617 3459 4988 8264 1018 8416 1348 9935 459 984 9652 3680 5363 6313 4489 653 293 8605 3047 8270 1000 2548
115 3856 76 1630 1037 6362 4925 3368 323 5504 9129 7871 7106 704 8348 2978 4806 3538 7156 5784 9105 7188 8420 518 9130 5094 2250 1248 2048 9983 8126 4720 1191 9667 2760 7824 7958 7930 2591 381 6107 1484 6135 2272 2074 8793 4154 7089 8036 5507 8155 7573 2553 4478 6052 1006 4653 8322 1138 2207 9080 2163 6065 8710 7177 5429 9943 9108 7658 9825 2929 5148 2649 8638 4335 784 7717 9685 4066 945 3206 1741 4231 2625 4031 7893 7261 8116 990 8344 3499 1857 7654 4813 2059 2907 2706 1114 5666 8162 5558 4063 6708 31 5624 2016 4239 5553 8391 1262 1985 7610 8971 4917 3084 3306
118 7615 9592 9995 5529 217 3957 8349 4179 1595 1481 895 1632 3977 8062 7594 462 7848 3532 8561 1277 694 849 4415 5723 905 1490 8720 4116 6984 6594 1776 7628 3841 7473 1121 1183 198 2562 8092 9500 7394 570 3758 8867 9459 5082 1535 7584 1253 1467 9836 8123 3269 7012 1099 1036 2745 6278 2784 3921 56 3608 3462 2040 2726 7803 7086 6274 1076 9716 7181 6073 3689 9924 4824 2666 3838 2823 8074 3480 4466 4398 6531 7733 4161 3985 4772 5925 6161 2541 6630 7444 9404 2555 7455 5941 1840 4956 5214 3682 8422 8472 1585 2260 5127 1653 8922 9057 5105 432 3268 4352 6502 7672 9016 4729 1964 6862
